{
  "version": "1.0.0-*",

  "dependencies": {
    "CoreDemo.Business": "1.0.0-*",
    "CoreDemo.Common": "1.0.0-*",
    "CoreDemo.Data": "1.0.0-*",
    "NETStandard.Library": "1.6.0"
  },

  "frameworks": {
    "netstandard1.6": {
      "imports": "dnxcore50"
    }
  }
}
